Invalid or missing REPLICATION_ACCESS_TOKEN in DBDefs.pm -- Get one at https://metabrainz.org at ./admin/replication/LoadReplicationChanges line 107.
Invalid or missing REPLICATION_ACCESS_TOKEN in DBDefs.pm -- Get one at https://metabrainz.org at ./admin/replication/LoadReplicationChanges line 107.
Invalid or missing REPLICATION_ACCESS_TOKEN in DBDefs.pm -- Get one at https://metabrainz.org at ./admin/replication/LoadReplicationChanges line 107.
Invalid or missing REPLICATION_ACCESS_TOKEN in DBDefs.pm -- Get one at https://metabrainz.org at ./admin/replication/LoadReplicationChanges line 107.
Invalid or missing REPLICATION_ACCESS_TOKEN in DBDefs.pm -- Get one at https://metabrainz.org at ./admin/replication/LoadReplicationChanges line 107.
Invalid or missing REPLICATION_ACCESS_TOKEN in DBDefs.pm -- Get one at https://metabrainz.org at ./admin/replication/LoadReplicationChanges line 107.
